419963 812483
447031 635875
337286 264527
116989 765096
957673 321531
621077 663636
76579 275737
219741 692683
113094 599601
711177 876717
770901 799648
670085 636605
252314 708056
799915 423973
406185 436060
166519 176446
205385 286634
427047 235936
349809 261108
205097 371893
480808 136074
916672 343276
107653 85110
430644 538071
448445 852270
4209 303105
236723 311672
729830 803163
60225 641572
663452 705566
339029 631774
893222 944311
486854 59607
272258 881578
370307 574309
164296 465308
702147 100278
191997 66956
418474 886333
64365 125184
929329 796382
371166 262041
92544 608556
124631 585797
289527 788262
587956 812904
586771 342263
42718 331645
34710 252006
145992 202427
769771 85997
479432 318226
122419 227381
186163 563758
365532 337237
232045 37083
2566 373699
737324 267822
411414 958031
234426 365669
40796 622716
845229 536118
46127 382655
118625 93124
458033 796326
105036 808271
263673 500909
951440 647090
575181 753603
732122 998733
936659 920555
972616 833895
16738 429228
544235 133794
82162 811430
402587 779673
831717 15175
236991 638922
204689 748130
366936 77891
57095 643944
583994 738388
853442 554429
720038 768302
540192 389203
805934 94793
950619 764121
823184 580591
695527 564632
491271 400309
925408 234798
756720 82548
489947 390733
969717 685047
26304 804498
296077 313040
457066 798919
757965 224818
440086 603974
48830 111937
358578 66914
831808 785147
100904 591980
965846 448864
696671 384027
322408 645730
324773 923351
841965 939186
474682 439613
263135 466312
204189 623973
97090 543466
189409 74564
523880 425718
877089 555443
311054 516685
306082 86145
661176 942667
269471 257448
634317 703862
248419 25217
325630 212034
928998 60153
963600 235722
764926 230944
473526 600249
4948 693004
569140 200071
71435 216835
702347 540782
941853 347547
938577 11884
361177 798608
510581 717581
103450 688430
700981 218376
399072 745539
131116 940288
950622 743884
416266 579602
548362 63113
221260 739264
811664 574274
170773 360138
605667 311211
20318 979994
599980 3314
981601 930984
913779 740450
754043 399064
188991 891123
355707 588651
552180 576429
593252 215805
797055 70651
870586 682762
844691 952051
323938 589479
300789 196232
198548 639295
715042 206789
298019 728600
28701 809526
741018 777265
178854 728254
927404 104783
638837 911361
783503 380021
283458 298671
806328 190197
213244 522120
293970 581630
905015 273734
79912 779001
898406 704214
96910 713092
262279 890513
689372 750374
48562 906684
820596 697120
473415 330115
576833 860989
593671 804632
362169 737775
629090 510166
108901 759447
800866 884275
478696 427418
958984 299856
382728 370657
174038 823789
304582 83367
521388 152953
993389 612869
176080 817206
593887 578327
286165 567803
131678 930296
750115 291384
937323 518747
479510 293495
938395 580263
823717 260619
660908 281067
579251 629840
580305 258851
241029 653969
19807 525922
859003 456040
471594 61781
930251 662218
88574 721676
693710 166742
519812 872052
81784 22330
126886 216312
825821 89220
507217 593787
138021 78882
293104 632509
970554 239336
676334 548024
725227 127897
942996 423201
367845 574114
757791 168186
938372 752145
129079 416040
423611 165213
285690 632933
123085 520591
751940 440439
52742 282760
253014 472797
665340 263486
488726 894314
943964 18069
6729 676316
974620 637646
424882 561579
516345 503069
866983 601687
633868 924246
775218 819957
282717 606497
260886 701263
226848 954742
235263 370843
452546 95324
668580 854638
