838112 226330
399994 400345
548819 594888
688769 878334
153265 723149
366313 418713
728880 429066
214430 731297
646982 720611
879998 520624
125471 180586
998414 972367
173061 62573
525538 994451
485821 753653
604875 674462
710805 751340
962912 934585
408208 515903
659826 57207
693755 593566
638030 618995
275008 38869
147773 7450
740748 735444
936458 220513
301061 836700
722472 161613
182787 202755
933085 617612
387112 79179
177506 530146
592853 642149
41449 567936
955781 762905
69060 731910
111970 85097
236800 315221
313544 763787
21275 570063
325846 377332
907642 36508
12534 280267
980007 295878
134222 554713
187186 618245
40649 276716
609524 331940
907323 127836
243915 590215
625331 17839
972965 434315
167135 310735
908669 425138
366367 418661
816344 268767
523484 722057
67549 879113
53206 126704
651573 17134
44001 381791
507339 771224
417459 720347
342390 369906
947126 657195
605886 264333
75766 991481
734566 478396
677826 917355
637657 641427
462300 805193
262452 211109
957793 16284
922364 785550
151439 68149
220838 705431
521841 731219
700369 399942
130604 867687
716737 957907
975682 901462
18358 58048
446260 848648
100918 26447
680122 780099
587150 561821
801529 190737
302782 714881
340223 541866
202360 732017
184030 76661
65014 539688
914902 363663
744111 838843
372617 923566
161651 895026
579820 461100
6835 434515
201479 775991
913426 504960
765123 496809
941172 704011
546967 662056
92071 730389
687908 415206
44893 655978
106779 529019
633921 607321
913477 881531
64498 53638
755324 803990
235123 760659
546810 753
840277 53947
264798 219800
490558 502220
738097 999318
513156 264361
843208 365836
812501 234295
842402 630616
888515 839580
330653 501875
993291 197161
88829 864853
233349 294493
393567 569078
668559 257826
25798 184261
179109 648600
12690 313489
145656 181690
421397 530376
175992 343526
784879 272142
999589 393053
814202 678045
557829 145331
216221 617067
149594 126316
451312 851894
170091 533506
376591 671795
428202 86671
704407 384660
941860 503422
646359 29553
965080 351991
773568 79970
820998 690873
779143 89022
249338 4223
368438 383380
179363 312358
198369 391813
443294 192830
335862 51542
739678 764571
67933 868367
336024 823575
349731 714186
222966 211885
193315 905651
504400 945087
721895 500698
602784 361389
801548 470562
60497 228842
306957 720090
503700 391845
146492 769473
438277 910292
385854 789205
283414 511081
48117 383329
927645 210213
229565 820423
5790 83638
604719 417374
981207 731206
203127 449402
61154 972138
762907 203794
362822 920115
337351 376772
314796 248259
847750 256173
446910 184083
509050 927946
573366 751500
266084 729183
150785 343629
219069 491451
959031 157338
968699 648519
921282 754071
709787 184705
647097 94448
452452 961253
774966 701404
914224 986586
994710 872049
958994 286922
263261 160891
356607 91477
410712 247877
436 498110
784003 754114
796114 514097
899743 882571
609623 385808
134550 931249
197375 230268
63644 230849
528737 609379
325248 267020
331453 651807
624568 529991
422059 852763
780871 671591
704953 261820
726216 538801
164689 464598
470941 657755
209791 276388
163604 226075
329414 3137
941290 100407
903237 914415
55660 130584
979416 248963
408894 893897
729180 378743
892019 150856
253851 207117
101773 475213
396284 69212
613929 839577
334435 220517
82975 531072
966141 580538
516993 333890
181007 485543
739119 106515
336331 309279
774581 251463
734396 801990
28237 335408
420107 324627
743099 535916
359846 241855
163334 918448
