963245 981440
310887 477672
584872 857990
230555 171279
948578 660430
622255 15446
739119 838609
204774 22979
423029 170703
787045 4566
349149 630316
393749 546923
422520 130239
596795 636594
611735 561061
813158 206915
34461 695922
141688 239664
989125 22046
235115 52422
958911 305374
581892 519160
228695 775720
283378 172352
83283 935550
586579 608
518875 341879
899479 484870
73132 869543
905324 432567
322674 11774
520646 379645
247901 948613
657532 621986
545866 86997
901559 492367
735173 214288
167366 910671
959188 667060
578460 29944
968104 310333
34726 486589
532352 839713
15131 166681
734636 110184
346528 496214
524822 269378
574219 441392
627426 304422
165819 477124
398668 142580
834103 383971
189377 951289
134510 394499
523632 298921
697158 341295
966163 2748
794968 643029
711281 982389
755011 427081
867586 936366
188647 532950
475929 729988
724868 534579
395272 78565
9022 435256
204544 867080
739640 397978
316368 178774
809715 586798
526407 605288
403146 799603
577210 120429
386718 745570
802760 873864
726002 134673
734550 961414
674179 73131
828395 825354
40561 458837
649142 662164
833740 531784
387999 537596
698285 684417
406920 712380
280419 59590
977115 240838
111049 926354
490764 141766
135098 817994
826670 324613
208509 484833
867909 259748
487831 691471
573285 550223
967593 717138
729069 856059
171749 408889
174896 868800
956590 643256
591296 57132
452099 873074
324240 747824
881004 84692
142506 119583
455651 437938
260915 609853
113647 298217
810075 197500
833531 577493
236828 731079
980223 429974
205388 930316
99010 168552
112785 690936
337533 230991
825918 80909
850000 621551
269923 912274
57084 295591
11710 107311
407893 39324
394818 360569
49842 437322
249813 4795
18817 799689
141042 382090
132540 737529
239775 289434
998675 831809
629925 687516
624001 63456
195131 401607
520992 113614
942628 614776
821325 686392
649004 179027
718159 169252
827689 542913
368115 771191
100458 958109
871017 992942
447556 700712
603496 485308
341599 403611
910499 339656
168055 236821
327464 427265
858522 430518
114358 754350
534491 420607
590955 150855
98907 533549
143362 806998
821396 875522
826125 156535
445546 729732
491958 847180
868636 466849
712646 600779
238652 205559
196285 607098
623610 433161
903441 603553
272834 758786
687886 990306
663489 631404
532183 952717
146038 533852
79321 326765
315774 310530
525750 515290
371140 401882
923300 180405
743282 503956
154617 278079
955340 994231
828468 283111
254253 891745
834771 836449
642296 358306
515563 396951
517919 218814
966653 361061
604946 560119
654026 400865
773933 144171
975965 284014
660693 6825
212124 784645
441416 402659
454367 932974
58918 414010
254961 646603
635119 976170
3513 251146
392493 847655
631840 426610
317129 936077
7141 895700
467428 702649
746390 447075
339905 936771
490263 303052
214734 905492
756073 999201
94196 504218
231062 812103
371543 272477
635680 485546
611843 600578
196759 236161
643743 877648
798035 995104
871277 79703
698222 712891
171928 541845
468646 940488
690853 846989
87701 487466
301166 903588
509009 552714
824679 826082
240158 769244
34502 678254
931766 247434
8772 291883
385975 26448
781439 929057
915469 833483
522762 297319
873488 442646
358646 408497
650085 249219
293875 498994
3087 512697
841259 26489
348207 70219
130447 253704
440933 660390
585970 265223
369386 775933
420156 424309
292641 13907
367045 163702
840163 452623
168554 195302
759038 46781
713488 416611
387077 666525
488848 583646
465071 365165
66146 940117
717321 681643
477254 245842
573857 351506
318913 846990
991498 44763
461283 638029
512131 862261
388064 564424
861207 317465
416120 848351
160883 701713
650015 839294
549724 415915
863392 921688
563109 115710
517518 746608
421040 92228
714388 829352
87680 500922
727326 727811
696985 236003
326844 544791
501362 95198
450245 856606
655077 646429
937774 803966
359319 205840
116494 173321
778570 192492
210088 905004
504678 721969
598876 141597
290380 419287
425123 356482
287195 746888
371188 878063
18366 267773
118865 910831
164185 33890
31681 647631
810498 823092
700780 243129
855840 730521
630597 541399
921293 78772
389798 987442
495164 758071
431158 91285
29389 867655
491544 787724
382054 403962
510655 894476
117047 485147
867703 634819
910226 279689
227372 572099
383388 408901
505228 989808
734509 814782
976598 190027
402002 89155
355263 338958
961820 639945
579596 421298
821631 695963
906394 565478
212197 887928
191428 974675
265521 932777
819929 319800
590118 34250
737548 759016
154618 923203
701539 413576
206872 682080
472611 173501
273894 82110
54338 284586
43185 550292
714443 933302
108280 207867
987568 262695
512901 651362
903939 606811
460069 702245
476386 481281
334003 690586
502684 706096
911443 986123
180545 217662
591387 373340
759963 887997
243374 321276
823679 524793
369878 661581
394380 375352
438412 829943
131505 338462
340403 255023
410915 554513
984331 247202
675067 674852
692233 321396
266677 393035
390924 94617
420997 437852
352867 79927
453439 558928
108231 321614
356477 679526
938785 726879
958158 892414
53730 808986
521711 439336
517173 567475
243503 476808
421048 300494
907935 382011
613156 571224
822910 73407
744810 756654
222665 965444
57724 511148
647496 594919
695852 369597
335188 35618
526914 901137
793471 260271
86125 50801
719997 462858
184079 28685
45390 39746
193878 96120
587362 934610
698908 645284
538776 7002
335332 421139
823817 287778
924257 628239
518674 32151
51054 977502
346081 33486
948168 507209
299181 820196
616901 612964
250113 282387
17512 701596
694934 169678
239477 951353
981462 455557
803129 282197
120675 327191
112068 386888
865030 526805
197951 995246
254629 924943
353615 615392
132154 310024
531394 32156
290068 299597
462852 574782
277803 9943
243217 726273
406844 252821
416673 797608
644549 281715
783111 547250
855694 408266
126644 202021
854835 525629
41012 951891
418753 46565
528296 402645
963943 135686
638784 878409
37510 807424
312924 640411
566102 642208
709743 288580
27721 223350
307650 157424
982349 765564
105837 855885
200180 550318
359451 897152
153878 641320
524317 198506
659436 638743
551902 209745
672555 826765
684268 683099
159150 295731
934906 221169
430125 513854
38257 107812
255394 648363
161941 180362
149730 168699
119805 500037
632825 934704
235921 975059
443257 610332
923493 960412
653374 768733
669414 391754
132801 767226
474931 941325
994746 826338
904637 530247
913586 642469
395358 498106
395715 305812
211647 366706
848223 503599
276690 887573
263978 543740
