553433 445872 470
87508 379701 443
801723 794441 468
675194 884774 525
707767 691096 504
149080 139791 375
820620 666957 504
442738 907490 525
167854 833139 509
599704 735691 509
890008 289858 525
11056 380627 443
289534 417600 449
519478 827554 509
518241 246216 470
741685 308715 509
961173 971564 458
674133 141868 509
309825 481585 449
988041 665551 525
838131 88776 525
616556 707028 509
731910 64747 509
152297 51004 375
3942 327769 443
292962 544775 470
178852 622915 470
959532 933373 507
21900 511775 449
503806 832541 509
220706 66668 386
458817 942991 525
290266 810798 509
927100 374370 525
950109 678120 525
15747 230909 443
526573 673186 509
923022 629836 525
956268 461987 525
219215 727822 509
807748 908478 525
314089 917371 525
493777 440424 444
221840 974530 525
89881 549893 470
147513 202096 383
75321 227626 386
11602 161164 383
551463 610321 434
220577 450969 449
480605 618652 470
797845 563923 509
544787 192406 470
237478 256901 368
471545 104496 449
68226 375810 443
359569 647444 509
653571 900 509
222428 475771 449
914950 477360 525
377496 729866 509
258044 561022 470
746626 417995 509
365670 305800 441
578395 318258 470
263946 681272 509
827366 706475 468
668105 625932 509
386218 456094 449
207554 540675 470
14398 627090 509
218032 789048 509
221589 983198 525
282453 350431 441
771701 111823 509
513763 704835 509
965657 892889 507
608149 374570 470
661090 927131 525
43067 622272 470
39315 477220 449
135621 167170 383
691065 451267 509
326791 381851 441
853244 846145 419
551456 503732 470
443711 761981 509
620273 309692 470
652928 656619 385
595610 223741 470
847869 104299 525
479151 234836 449
121369 458990 449
884872 737564 525
730069 477316 509
883329 318145 525
883621 539784 525
181882 895681 525
952081 135833 525
192561 895224 525
386928 501221 449
918927 271124 525
632825 223660 509
850450 632531 525
477175 752428 509
870786 803722 525
92048 230469 386
525190 752643 509
558795 793732 509
843231 473600 525
116398 477589 449
382662 518664 470
933714 520263 525
967940 928833 507
828399 638916 504
241936 445704 449
845771 172263 525
164970 689886 509
838909 784688 525
472768 73998 449
138608 302676 443
106270 319459 443
654764 774578 504
847500 622641 525
324653 85755 443
216506 241509 443
179459 158266 370
227948 491591 449
358557 344681 441
103277 563994 470
748830 434429 509
277323 487923 449
236387 955698 525
475994 114009 449
635440 624794 509
547436 31064 470
167489 667176 509
813646 616540 509
756834 72849 509
38134 320264 443
378752 912314 525
897237 570445 525
618514 352926 470
666429 943758 525
550281 491835 470
402640 454177 449
638466 424607 509
795298 316162 509
972718 800902 525
651891 901977 525
673948 373860 509
909346 266946 525
451140 481399 444
25630 57729 340
144213 93366 375
80341 327967 443
706821 835878 468
291273 184048 443
491203 583222 470
842523 4180 525
787906 66674 509
523267 223960 470
547872 442025 470
904682 411253 525
475987 194112 449
550992 322997 470
86709 657277 509
566153 560559 421
155386 980695 525
904719 509247 525
860252 451280 525
474786 264031 449
620586 111109 470
677191 713911 504
657448 317409 509
891837 678201 525
197207 567910 470
284347 656868 509
974295 142078 525
39026 577191 470
848576 314976 525
705020 241515 509
823944 423620 509
14161 973322 525
472409 200271 449
667892 848211 525
712223 750719 424
750907 444744 509
818557 110541 509
454402 762934 509
307697 91650 443
208929 178581 373
383600 762431 509
219437 707768 509
637848 306781 509
114458 999963 525
984620 106714 525
929091 911331 476
607567 535906 452
954070 592170 525
727884 578423 509
134163 264128 443
564560 725798 509
161892 57061 383
775151 292920 509
348022 585388 470
428806 151883 449
447712 333802 449
725030 599245 509
483718 909187 525
255073 960566 525
456933 452685 369
545823 243516 470
906797 938437 476
343855 727724 509
234125 258128 381
115634 27557 354
26462 56084 340
