114328 800356 509
730801 646169 504
313192 125377 443
344277 58150 443
384133 646400 509
534521 83066 470
348279 236553 441
201823 769164 509
282918 730689 509
399695 88600 443
611822 753324 509
406341 608331 470
198861 247846 443
87772 40051 351
608111 660378 509
668337 782950 504
847165 202629 525
258469 23579 443
57842 803450 509
156353 660725 509
82090 754431 509
72157 94833 351
694646 851554 525
372066 188556 443
33989 684569 509
523099 236634 470
371735 394097 436
764010 970833 525
701940 693223 411
823902 59115 509
629403 577786 509
735095 819897 468
461368 696632 509
491548 794813 509
271209 329990 389
935771 526570 525
267206 586819 470
406901 293530 441
874999 703443 525
88835 888396 525
680778 901224 525
989496 799926 525
262267 647047 509
33024 779979 509
451866 474698 444
511783 40894 449
177229 163245 352
574316 331393 470
178470 830703 509
945737 354722 525
858482 27215 525
37098 754994 509
804138 19680 509
501245 578063 470
370217 915749 525
222318 930878 525
234731 549325 470
372826 677219 509
968868 391870 525
820842 502576 509
24865 32328 308
997626 190428 525
887228 365764 525
145440 61337 375
257112 746087 509
931188 479698 525
172633 928271 525
40478 591718 470
298787 455216 449
643328 170418 509
597885 850737 525
964492 336978 525
604526 701168 509
325229 369555 441
82844 667833 509
804225 325836 509
636420 53608 509
574493 701664 509
292643 835093 509
315436 347622 441
601128 233414 470
133018 505776 449
426159 552003 470
627390 766025 504
348165 253743 441
238921 478663 449
177447 270406 443
53235 393579 443
274490 218413 443
142087 601003 470
489012 573332 470
763724 528062 509
640108 227286 509
513536 87227 470
349680 527591 470
902335 207527 525
600297 432369 470
72763 334388 443
785558 972981 525
422347 251255 449
773385 341608 509
898522 979707 507
654347 899620 525
508279 231798 449
771671 353454 509
596114 111517 470
884211 532335 525
66589 778876 509
715337 8703 509
346259 689412 509
773144 720551 468
290362 373304 441
124685 407889 443
640137 790552 504
715330 980448 525
303929 569986 470
873326 120955 525
560952 258533 470
120134 12867 354
624206 317572 470
45887 121303 354
587015 785521 509
778366 525966 509
111529 435240 449
14232 609550 470
803735 472218 509
588003 723802 509
408072 507367 449
993901 597874 525
29375 571104 470
286929 246424 407
909473 637025 525
40965 510453 449
404560 290661 441
15637 855475 525
72235 430024 449
256863 121534 443
124619 4797 354
40533 15860 324
324786 18590 443
104977 520135 470
851395 763101 525
24046 89518 351
388095 186921 443
623522 761700 509
690747 915506 525
492513 73291 449
344858 490262 449
417420 30082 449
446706 104023 449
545753 886636 525
671498 676165 385
548678 63188 470
532762 645918 509
350903 344521 441
529675 651850 509
897194 139927 525
314102 298090 384
321689 187360 443
975029 156088 525
578416 386810 470
579809 114100 470
463325 832301 509
475821 467893 382
790546 932333 525
473078 988821 525
166560 784701 509
302213 88335 443
840384 813844 525
487741 343698 449
227808 97439 386
745262 876774 525
28719 257974 443
213486 712832 509
250419 360459 441
724303 539607 509
767158 370050 509
923352 419432 525
676079 780408 504
139659 210523 383
732650 30829 509
131544 369036 443
610897 646603 509
122795 423993 449
267118 109598 443
903039 782017 525
791220 633215 504
442508 899255 525
523416 48983 470
182903 636496 509
225573 928018 525
988897 641837 525
152035 307189 443
274558 577761 470
793219 51574 509
694912 279525 509
992705 511829 525
564890 663854 509
43998 405400 443
966527 82335 525
453881 770021 509
853324 162193 525
655724 813838 504
618397 573453 447
257239 201798 443
158347 965806 525
483050 16893 449
184191 467837 449
658389 466262 509
37571 499229 449
618172 787219 509
14398 655508 509
854218 362180 525
978412 632359 525
949071 318853 525
156072 428349 449
797514 146121 509
78260 986278 525
635338 306632 509
837553 349861 509
858363 563148 525
925039 865336 476
107435 603727 470
232183 565628 470
71554 62100 330
705579 68811 509
961682 695414 525
781699 51300 509
754668 831133 468
530631 457729 470
130236 219087 386
723194 608378 509
338744 713039 509
167258 220043 386
239503 69838 443
2671 202027 383
495465 186471 449
234406 452942 449
22439 559694 470
937980 372811 525
456211 506647 444
162607 63986 383
775813 596988 509
482833 521873 470
75266 98465 351
61455 997364 525
201040 407947 443
586379 131786 470
467422 509467 426
718865 668235 504
891830 522576 525
12827 16673 276
22737 485455 449
242980 105693 443
765215 722418 424
717292 211094 509
118643 861074 525
917170 319304 525
273876 228599 443
142005 207251 383
43737 960236 525
